testbench/MOD0_0/mod0_0.vcd
$date
	Thu Jul 24 17:36:09 2025
$end

$version
	Synopsys VCS version W-2024.09-SP1_Full64
$end

$timescale
	1ps
$end

$comment Csum: 1 f31f6575951c050f $end


$scope module tb_dut $end
$var integer 32 ! i_file_i $end
$var integer 32 " i_file_q $end
$var reg 1 # clk $end
$var reg 1 $ rstn $end
$var integer 32 % out_file_id $end
$var integer 32 & i_data $end
$var integer 32 ' read_i $end
$var integer 32 ( read_q $end

$scope begin unnamed$$_0 $end
$upscope $end


$scope begin unnamed$$_1 $end
$upscope $end


$scope begin unnamed$$_2 $end
$upscope $end


$scope module DUT $end
$var wire 1 ) clk $end
$var wire 1 * rstn $end
$var reg 1 + w_bf_en $end
$var reg 1 , w_valid_fac8_0 $end

$scope module U_CU_MOD00 $end
$var wire 1 ) clk $end
$var wire 1 * rstn $end
$var reg 1 - bf_en $end
$var reg 1 . valid_fac8_0 $end
$var reg 5 / w_cnt_ctrl [4:0] $end

$scope begin make_bf_ctrl $end
$upscope $end


$scope module U_CNT_5B $end
$var wire 1 ) clk $end
$var wire 1 * rstn $end
$var reg 5 0 cnt_ctrl [4:0] $end

$scope begin make_ctrl_signal $end
$upscope $end

$upscope $end


$scope module U_CTRL_FAC8_0 $end
$var wire 1 ) clk $end
$var wire 1 * rstn $end
$var wire 1 1 en $end
$var reg 1 2 valid_fac8_0 $end
$var reg 4 3 cnt [3:0] $end
$var reg 1 4 cnt_flag $end

$scope begin fac8_0_ctrl $end
$upscope $end

$upscope $end

$upscope $end


$scope module U_SHIFT_REG_256 $end
$var wire 1 ) clk $end
$var wire 1 * rstn $end
$var integer 32 5 i $end
$var integer 32 6 j $end
$var integer 32 7 k $end

$scope begin shift_operate $end
$upscope $end

$upscope $end


$scope module U_BF2I00 $end
$var wire 1 ) clk $end
$var wire 1 * rst_n $end
$var wire 1 8 en $end
$var integer 32 9 i $end
$upscope $end


$scope module U_FAC80_00 $end
$var wire 1 ) clk $end
$var wire 1 * rst_n $end
$var wire 1 : en $end
$var integer 32 ; i $end
$upscope $end

$upscope $end

$upscope $end

$enddefinitions $end

#0
$dumpvars
0#
0$
bxxxxxxxxxxxxxxxxxxxxxxxxxxxxxxxx &
b10000000000000000000000000000011 !
b10000000000000000000000000000100 "
b10000000000000000000000000000101 %
bxxxxxxxxxxxxxxxxxxxxxxxxxxxxxxxx '
bxxxxxxxxxxxxxxxxxxxxxxxxxxxxxxxx (
02
0-
04
01
b0000 3
b00000 0
b00000 /
b00000000000000000000000000010000 5
b00000000000000000000000000010000 6
bxxxxxxxxxxxxxxxxxxxxxxxxxxxxxxxx 7
b00000000000000000000000000010000 9
b00000000000000000000000000010000 ;
0.
0,
0)
0*
0+
08
0:
$end
#5000
1#
1)
1$
1*
b00000000000000000000000000000000 &
b00000000000000000000000000001111 6
b00000000000000000000000000010000 7
b00001 0
b00001 /
#10000
0#
0)
#15000
1#
1)
b00010 0
b00010 /
#20000
0#
0)
#25000
1#
1)
b00011 0
b00011 /
#30000
0#
0)
#35000
1#
1)
b00000000000000000000000000010000 &
b00100 0
b00100 /
#40000
0#
0)
#45000
1#
1)
b00101 0
b00101 /
#50000
0#
0)
#55000
1#
1)
b00110 0
b00110 /
#60000
0#
0)
#65000
1#
1)
b00000000000000000000000000100000 &
b00111 0
b00111 /
#70000
0#
0)
#75000
1#
1)
b01000 0
b01000 /
#80000
0#
0)
#85000
1#
1)
b01001 0
b01001 /
#90000
0#
0)
#95000
1#
1)
b00000000000000000000000000110000 &
b01010 0
b01010 /
#100000
0#
0)
#105000
1#
1)
b01011 0
b01011 /
#110000
0#
0)
#115000
1#
1)
b01100 0
b01100 /
#120000
0#
0)
#125000
1#
1)
b00000000000000000000000001000000 &
b01101 0
b01101 /
#130000
0#
0)
#135000
1#
1)
b01110 0
b01110 /
#140000
0#
0)
#145000
1#
1)
b01111 0
b01111 /
#150000
0#
0)
#155000
1#
1)
b00000000000000000000000001010000 &
b10000 0
b10000 /
11
#160000
0#
0)
#165000
1#
1)
1-
1+
18
b10001 0
b10001 /
14
#170000
0#
0)
#175000
1#
1)
b10010 0
b10010 /
b0001 3
#180000
0#
0)
#185000
1#
1)
b00000000000000000000000001100000 &
b10011 0
b10011 /
b0010 3
#190000
0#
0)
#195000
1#
1)
b10100 0
b10100 /
b0011 3
#200000
0#
0)
#205000
1#
1)
b10101 0
b10101 /
b0100 3
#210000
0#
0)
#215000
1#
1)
b00000000000000000000000001110000 &
b10110 0
b10110 /
b0101 3
#220000
0#
0)
#225000
1#
1)
b10111 0
b10111 /
b0110 3
#230000
0#
0)
#235000
1#
1)
b11000 0
b11000 /
b0111 3
#240000
0#
0)
#245000
1#
1)
b00000000000000000000000010000000 &
b11001 0
b11001 /
12
1.
1,
1:
b1000 3
#250000
0#
0)
#255000
1#
1)
b11010 0
b11010 /
b1001 3
#260000
0#
0)
#265000
1#
1)
b11011 0
b11011 /
b1010 3
#270000
0#
0)
#275000
1#
1)
b00000000000000000000000010010000 &
b11100 0
b11100 /
b1011 3
#280000
0#
0)
#285000
1#
1)
b11101 0
b11101 /
b1100 3
#290000
0#
0)
#295000
1#
1)
b11110 0
b11110 /
b1101 3
#300000
0#
0)
#305000
1#
1)
b00000000000000000000000010100000 &
b11111 0
b11111 /
b1110 3
#310000
0#
0)
#315000
1#
1)
b00000 0
b00000 /
01
b1111 3
#320000
0#
0)
#325000
1#
1)
0-
0+
08
b00001 0
b00001 /
02
0.
0,
0:
04
b0000 3
#330000
0#
0)
#335000
1#
1)
b00000000000000000000000010110000 &
b00010 0
b00010 /
#340000
0#
0)
#345000
1#
1)
b00011 0
b00011 /
#350000
0#
0)
#355000
1#
1)
b00100 0
b00100 /
#360000
0#
0)
#365000
1#
1)
b00000000000000000000000011000000 &
b00101 0
b00101 /
#370000
0#
0)
#375000
1#
1)
b00110 0
b00110 /
#380000
0#
0)
#385000
1#
1)
b00111 0
b00111 /
#390000
0#
0)
#395000
1#
1)
b00000000000000000000000011010000 &
b01000 0
b01000 /
#400000
0#
0)
#405000
1#
1)
b01001 0
b01001 /
#410000
0#
0)
#415000
1#
1)
b01010 0
b01010 /
#420000
0#
0)
#425000
1#
1)
b00000000000000000000000011100000 &
b01011 0
b01011 /
#430000
0#
0)
#435000
1#
1)
b01100 0
b01100 /
#440000
0#
0)
#445000
1#
1)
b01101 0
b01101 /
#450000
0#
0)
#455000
1#
1)
b00000000000000000000000011110000 &
b01110 0
b01110 /
#460000
0#
0)
#465000
1#
1)
b01111 0
b01111 /
#470000
0#
0)
#475000
1#
1)
b10000 0
b10000 /
11
#480000
0#
0)
#485000
1#
1)
b00000000000000000000000100000000 &
1-
1+
18
b10001 0
b10001 /
14
#490000
0#
0)
#495000
1#
1)
b10010 0
b10010 /
b0001 3
#500000
0#
0)
#505000
1#
1)
b10011 0
b10011 /
b0010 3
#510000
0#
0)
#515000
1#
1)
b00000000000000000000000100010000 &
b10100 0
b10100 /
b0011 3
#520000
0#
0)
#525000
1#
1)
b10101 0
b10101 /
b0100 3
#530000
0#
0)
#535000
1#
1)
b10110 0
b10110 /
b0101 3
#540000
0#
0)
#545000
1#
1)
b00000000000000000000000100100000 &
b10111 0
b10111 /
b0110 3
#550000
0#
0)
#555000
1#
1)
b11000 0
b11000 /
b0111 3
#560000
0#
0)
#565000
1#
1)
b11001 0
b11001 /
12
1.
1,
1:
b1000 3
#570000
0#
0)
#575000
1#
1)
b00000000000000000000000100110000 &
b11010 0
b11010 /
b1001 3
#580000
0#
0)
#585000
1#
1)
b11011 0
b11011 /
b1010 3
#590000
0#
0)
#595000
1#
1)
b11100 0
b11100 /
b1011 3
#600000
0#
0)
#605000
1#
1)
b00000000000000000000000101000000 &
b11101 0
b11101 /
b1100 3
#610000
0#
0)
#615000
1#
1)
b11110 0
b11110 /
b1101 3
#620000
0#
0)
#625000
1#
1)
b11111 0
b11111 /
b1110 3
#630000
0#
0)
#635000
1#
1)
b00000000000000000000000101010000 &
b00000 0
b00000 /
01
b1111 3
#640000
0#
0)
#645000
1#
1)
0-
0+
08
b00001 0
b00001 /
02
0.
0,
0:
04
b0000 3
#650000
0#
0)
#655000
1#
1)
b00010 0
b00010 /
#660000
0#
0)
#665000
1#
1)
b00000000000000000000000101100000 &
b00011 0
b00011 /
#670000
0#
0)
#675000
1#
1)
b00100 0
b00100 /
#680000
0#
0)
#685000
1#
1)
b00101 0
b00101 /
#690000
0#
0)
#695000
1#
1)
b00000000000000000000000101110000 &
b00110 0
b00110 /
#700000
0#
0)
#705000
1#
1)
b00111 0
b00111 /
#710000
0#
0)
#715000
1#
1)
b01000 0
b01000 /
#720000
0#
0)
#725000
1#
1)
b00000000000000000000000110000000 &
b01001 0
b01001 /
#730000
0#
0)
#735000
1#
1)
b01010 0
b01010 /
#740000
0#
0)
#745000
1#
1)
b01011 0
b01011 /
#750000
0#
0)
#755000
1#
1)
b00000000000000000000000110010000 &
b01100 0
b01100 /
#760000
0#
0)
#765000
1#
1)
b01101 0
b01101 /
#770000
0#
0)
#775000
1#
1)
b01110 0
b01110 /
#780000
0#
0)
#785000
1#
1)
b00000000000000000000000110100000 &
b01111 0
b01111 /
#790000
0#
0)
#795000
1#
1)
b10000 0
b10000 /
11
#800000
0#
0)
#805000
1#
1)
1-
1+
18
b10001 0
b10001 /
14
#810000
0#
0)
#815000
1#
1)
b00000000000000000000000110110000 &
b10010 0
b10010 /
b0001 3
#820000
0#
0)
#825000
1#
1)
b10011 0
b10011 /
b0010 3
#830000
0#
0)
#835000
1#
1)
b10100 0
b10100 /
b0011 3
#840000
0#
0)
#845000
1#
1)
b00000000000000000000000111000000 &
b10101 0
b10101 /
b0100 3
#850000
0#
0)
#855000
1#
1)
b10110 0
b10110 /
b0101 3
#860000
0#
0)
#865000
1#
1)
b10111 0
b10111 /
b0110 3
#870000
0#
0)
#875000
1#
1)
b00000000000000000000000111010000 &
b11000 0
b11000 /
b0111 3
#880000
0#
0)
#885000
1#
1)
b11001 0
b11001 /
12
1.
1,
1:
b1000 3
#890000
0#
0)
#895000
1#
1)
b11010 0
b11010 /
b1001 3
#900000
0#
0)
#905000
1#
1)
b00000000000000000000000111100000 &
b11011 0
b11011 /
b1010 3
#910000
0#
0)
#915000
1#
1)
b11100 0
b11100 /
b1011 3
#920000
0#
0)
#925000
1#
1)
b11101 0
b11101 /
b1100 3
#930000
0#
0)
#935000
1#
1)
b00000000000000000000000111110000 &
b11110 0
b11110 /
b1101 3
#940000
0#
0)
#945000
1#
1)
b11111 0
b11111 /
b1110 3
#950000
0#
0)
#955000
1#
1)
b00000 0
b00000 /
01
b1111 3
#960000
0#
0)
#965000
1#
1)
b00000000000000000000001000000000 &
0-
0+
08
b00001 0
b00001 /
02
0.
0,
0:
04
b0000 3
#970000
0#
0)
#975000
1#
1)
b00010 0
b00010 /
